{
	"info": {
		"_postman_id": "4c9e04f8-6dde-4a77-81af-d7ebbfc45de7",
		"name": "Nerdearla",
		"schema": "https://schema.getpostman.com/json/collection/v2.1.0/collection.json"
	},
	"item": [
		{
			"name": "CRUD Connectors",
			"item": [
				{
					"name": "createConnectorSource",
					"request": {
						"method": "POST",
						"header": [
							{
								"description": "Normativo kafka",
								"key": "Content-Type",
								"value": "application/json"
							},
							{
								"description": "Normativo kakfa",
								"key": "Accept",
								"type": "text",
								"value": "application/json"
							}
						],
						"body": {
							"mode": "raw",
							"raw": "{\r\n  \"name\" : \"TEST_CONNECTOR_SOURCE\",\r\n  \"config\" : {\r\n        \"connector.class\": \"io.confluent.connect.jdbc.JdbcSourceConnector\",\r\n        \"connection.url\": \"jdbc:jtds:sqlserver://mssql:1433;databaseName=master\",\r\n        \"connection.user\": \"sa\",\r\n        \"connection.password\": \"Falabella.2019!\",\r\n        \r\n        \"query\": \"SELECT ID,NOMBRE,CANTIDAD FROM INVENTARIO_SOURCE\",\r\n        \"incrementing.column.name\": \"ID\",\r\n        \"tasks.max\": \"1\",\r\n        \"batch.max.rows\": \"1\",\r\n        \"table.poll.interval.ms\": \"3000\",\r\n        \"mode\": \"incrementing\",\r\n        \"topic.prefix\": \"TOPIC_TEST\",\r\n\r\n        \"value.converter.schemas.enable\": \"false\",\r\n        \"value.converter\": \"org.apache.kafka.connect.json.JsonConverter\",\r\n        \"key.converter\": \"org.apache.kafka.connect.json.JsonConverter\",\r\n        \"key.converter.schemas.enable\": \"false\"\r\n\r\n    }\r\n}"
						},
						"url": {
							"raw": "http://localhost:8083/connectors",
							"protocol": "http",
							"host": [
								"localhost"
							],
							"port": "8083",
							"path": [
								"connectors"
							]
						},
						"description": "CREA el connector SOURCE,en el HOST kafka connect. \nImportante definir las variables de ambiente: \n        source.user.mssql.test\n\t\tsource.password.mssql.test\n        source.db.url.test\n        source.table.poll.interval.ms"
					},
					"response": []
				},
				{
					"name": "createConnectorSink",
					"request": {
						"method": "POST",
						"header": [
							{
								"description": "Normativo kafka",
								"key": "Content-Type",
								"value": "application/json"
							},
							{
								"description": "Normativo kakfa",
								"key": "Accept",
								"type": "text",
								"value": "application/json"
							}
						],
						"body": {
							"mode": "raw",
							"raw": "{\n    \"name\": \"TEST_CONNECTOR_SINK_RABBIT\",\n    \"config\":  {\n       \"connector.class\" : \"fif.gob.eda.rabbitmq.sink.RabbitMQSinkConnector\",\n    \"tasks.max\" : \"1\",\n    \"topics\" : \"TOPIC_TEST\",\n    \"rabbitmq.queue\":\"testingqueue\",\n    \"rabbitmq.host\":\"rabbitmq\",\n    \"rabbitmq.routing.key\":\"\",\n    \"rabbitmq.port\": 5672,\n    \"rabbitmq.username\":\"admin\",\n    \"rabbitmq.password\":\"admin\",\n    \"key.converter.schemas.enable\": \"false\",\n    \"value.converter.schemas.enable\": \"false\",\n    \"value.converter\": \"org.apache.kafka.connect.storage.StringConverter\",\n    \"key.converter\": \"org.apache.kafka.connect.storage.StringConverter\",\n    \"consumer.override.auto.offset.reset\": \"earliest\"\n  }\n}"
						},
						"url": {
							"raw": "http://localhost:8083/connectors",
							"protocol": "http",
							"host": [
								"localhost"
							],
							"port": "8083",
							"path": [
								"connectors"
							]
						},
						"description": "CREA el connector SOURCE,en el HOST kafka connect. \nImportante definir las variables de ambiente: \n        source.user.mssql.test\n\t\tsource.password.mssql.test\n        source.db.url.test\n        source.table.poll.interval.ms"
					},
					"response": []
				},
				{
					"name": "updateConnectorSource MSSQL",
					"request": {
						"method": "PUT",
						"header": [
							{
								"description": "Normativo kafka",
								"key": "Content-Type",
								"value": "application/json"
							},
							{
								"description": "Normativo kakfa",
								"key": "Accept",
								"type": "text",
								"value": "application/json"
							}
						],
						"body": {
							"mode": "raw",
							"raw": "{\r\n        \"connector.class\": \"io.confluent.connect.jdbc.JdbcSourceConnector\",\r\n        \"connection.url\": \"jdbc:jtds:sqlserver://mssql:1433;databaseName=master\",\r\n        \"connection.user\": \"sa\",\r\n        \"connection.password\": \"Falabella.2019!\",\r\n        \r\n        \"query\": \"SELECT ID,NOMBRE,CANTIDAD,DESTINO FROM INVENTARIO_SOURCE\",\r\n        \"incrementing.column.name\": \"ID\",\r\n        \"tasks.max\": \"1\",\r\n        \"batch.max.rows\": \"1\",\r\n        \"table.poll.interval.ms\": \"3000\",\r\n        \"mode\": \"incrementing\",\r\n        \"topic.prefix\": \"TOPIC_TEST\",\r\n\r\n        \"value.converter.schemas.enable\": \"false\",\r\n        \"value.converter\": \"org.apache.kafka.connect.json.JsonConverter\",\r\n        \"key.converter\": \"org.apache.kafka.connect.json.JsonConverter\",\r\n        \"key.converter.schemas.enable\": \"false\",\r\n        \"name\": \"TEST_CONNECTOR_SOURCE\"\r\n\r\n    }"
						},
						"url": {
							"raw": "http://localhost:8083/connectors/TEST_CONNECTOR_SOURCE/config",
							"protocol": "http",
							"host": [
								"localhost"
							],
							"port": "8083",
							"path": [
								"connectors",
								"TEST_CONNECTOR_SOURCE",
								"config"
							]
						},
						"description": "Actualiza el connector SOURCE,en el HOST kafka connect. \nImportante definir las variables de ambiente: \n        source.user.mssql.test\n\t\tsource.password.mssql.test\n        source.db.url.test\n        source.table.poll.interval.ms"
					},
					"response": []
				},
				{
					"name": "updateConnectorSink Rabbit",
					"request": {
						"method": "PUT",
						"header": [
							{
								"description": "Normativo kafka",
								"key": "Content-Type",
								"value": "application/json"
							},
							{
								"description": "Normativo kakfa",
								"key": "Accept",
								"type": "text",
								"value": "application/json"
							}
						],
						"body": {
							"mode": "raw",
							"raw": " {\r\n    \"name\" : \"TEST_CONNECTOR_SINK_RABBIT\",\r\n    \"connector.class\" : \"fif.gob.eda.rabbitmq.sink.RabbitMQSinkConnector\",\r\n    \"tasks.max\" : \"1\",\r\n    \"topics\" : \"TOPIC_TEST\",\r\n    \"rabbitmq.queue\":\"testingqueue\",\r\n    \"rabbitmq.host\":\"rabbitmq\",\r\n    \"rabbitmq.routing.key\":\"\",\r\n    \"rabbitmq.port\": 5672,\r\n    \"rabbitmq.username\":\"admin\",\r\n    \"rabbitmq.password\":\"admin\",\r\n    \"key.converter.schemas.enable\": \"false\",\r\n    \"value.converter.schemas.enable\": \"false\",\r\n    \"value.converter\": \"org.apache.kafka.connect.json.JsonConverter\",\r\n    \"key.converter\": \"org.apache.kafka.connect.storage.StringConverter\",\r\n    \"consumer.override.auto.offset.reset\": \"earliest\",\r\n    \"transforms\": \"filtroxValor\",\r\n    \"transforms.filtroxValor.type\": \"io.confluent.connect.transforms.Filter$Value\",\r\n    \"transforms.filtroxValor.missing.or.null.behavior\": \"exclude\",\r\n    \"transforms.filtroxValor.filter.type\": \"include\",\r\n    \"transforms.filtroxValor.filter.condition\": \"$.[?(@.DESTINO == 'RabbitMQ')]\"\r\n\r\n\r\n  }"
						},
						"url": {
							"raw": "http://localhost:8083/connectors/TEST_CONNECTOR_SINK_RABBIT/config",
							"protocol": "http",
							"host": [
								"localhost"
							],
							"port": "8083",
							"path": [
								"connectors",
								"TEST_CONNECTOR_SINK_RABBIT",
								"config"
							]
						},
						"description": "Actualiza el connector SOURCE,en el HOST kafka connect. \nImportante definir las variables de ambiente: \n        source.user.mssql.test\n\t\tsource.password.mssql.test\n        source.db.url.test\n        source.table.poll.interval.ms"
					},
					"response": []
				},
				{
					"name": "updateConnectorSink PUBSUB",
					"request": {
						"method": "PUT",
						"header": [
							{
								"description": "Normativo kafka",
								"key": "Content-Type",
								"value": "application/json"
							},
							{
								"description": "Normativo kakfa",
								"key": "Accept",
								"type": "text",
								"value": "application/json"
							}
						],
						"body": {
							"mode": "raw",
							"raw": "{\r\n    \"name\": \"TEST_CONNECTOR_SINK_GOOGLE\",\r\n    \"connector.class\": \"com.google.pubsub.kafka.sink.CloudPubSubSinkConnector\",\r\n    \"tasks.max\": \"1\",\r\n    \"topics\": \"TOPIC_TEST\",\r\n    \"cps.endpoint\":\"pubsub.googleapis.com:443\",\r\n    \"cps.subscription\":\"/projects/eternal-byte-270620/subscriptions/nerderala/\",\r\n    \"cps.project\": \"eternal-byte-270620\",\r\n    \"cps.topic\": \"KAFKA_TO_PUBSUB\",\r\n    \"key.converter.schemas.enable\": \"false\",\r\n    \"value.converter.schemas.enable\": \"false\",\r\n    \"value.converter\": \"org.apache.kafka.connect.storage.StringConverter\",\r\n    \"key.converter\": \"org.apache.kafka.connect.storage.StringConverter\",\r\n    \"consumer.override.auto.offset.reset\": \"earliest\"\r\n}"
						},
						"url": {
							"raw": "http://localhost:8083/connectors/TEST_CONNECTOR_SINK_GOOGLE/config",
							"protocol": "http",
							"host": [
								"localhost"
							],
							"port": "8083",
							"path": [
								"connectors",
								"TEST_CONNECTOR_SINK_GOOGLE",
								"config"
							]
						},
						"description": "Actualiza el connector SOURCE,en el HOST kafka connect. \nImportante definir las variables de ambiente: \n        source.user.mssql.test\n\t\tsource.password.mssql.test\n        source.db.url.test\n        source.table.poll.interval.ms"
					},
					"response": []
				},
				{
					"name": "deleteConnector",
					"request": {
						"method": "DELETE",
						"header": [],
						"body": {
							"mode": "raw",
							"raw": ""
						},
						"url": {
							"raw": "http://localhost:8083/connectors/TEST_CONNECTOR_SINK_RABBIT2",
							"protocol": "http",
							"host": [
								"localhost"
							],
							"port": "8083",
							"path": [
								"connectors",
								"TEST_CONNECTOR_SINK_RABBIT2"
							]
						},
						"description": "Request que elimina un connector especifico existente en el HOST kafka connect, definido en la variable {{connector}}"
					},
					"response": []
				},
				{
					"name": "restartConnector",
					"request": {
						"method": "POST",
						"header": [
							{
								"description": "Normativo kafka",
								"key": "Content-Type",
								"value": "application/json"
							},
							{
								"description": "Normativo kakfa",
								"key": "Accept",
								"type": "text",
								"value": "application/json"
							}
						],
						"body": {
							"mode": "raw",
							"raw": ""
						},
						"url": {
							"raw": "http://localhost:8083/connectors/SIMPLE_SINK_BD/restart",
							"protocol": "http",
							"host": [
								"localhost"
							],
							"port": "8083",
							"path": [
								"connectors",
								"SIMPLE_SINK_BD",
								"restart"
							]
						},
						"description": "Request que reinicia un connector especifico existente en el HOST kafka connect."
					},
					"response": []
				},
				{
					"name": "pauseConnector",
					"request": {
						"method": "PUT",
						"header": [
							{
								"description": "Normativo kafka",
								"key": "Content-Type",
								"value": "application/json"
							},
							{
								"description": "Normativo kakfa",
								"key": "Accept",
								"type": "text",
								"value": "application/json"
							}
						],
						"body": {
							"mode": "raw",
							"raw": ""
						},
						"url": {
							"raw": "http://localhost:8083/connectors/SIMPLE_SINK_BD/pause",
							"protocol": "http",
							"host": [
								"localhost"
							],
							"port": "8083",
							"path": [
								"connectors",
								"SIMPLE_SINK_BD",
								"pause"
							]
						},
						"description": "Request que pausa un connector especifico existente en el HOST kafka connect, definido en la variable {{connector}}"
					},
					"response": []
				}
			],
			"event": [
				{
					"listen": "prerequest",
					"script": {
						"type": "text/javascript",
						"exec": [
							""
						]
					}
				},
				{
					"listen": "test",
					"script": {
						"type": "text/javascript",
						"exec": [
							""
						]
					}
				}
			]
		},
		{
			"name": "getConnectors-Todos",
			"request": {
				"method": "GET",
				"header": [
					{
						"description": "Normativo kafka",
						"key": "Content-Type",
						"value": "application/json"
					},
					{
						"description": "Normativo kakfa",
						"key": "Accept",
						"type": "text",
						"value": "application/json"
					}
				],
				"url": {
					"raw": "http://localhost:8083/connectors",
					"protocol": "http",
					"host": [
						"localhost"
					],
					"port": "8083",
					"path": [
						"connectors"
					]
				},
				"description": "Request que obtiene los conectores existentes en el HOST kafka connect."
			},
			"response": []
		},
		{
			"name": "getConnectorsPlugins",
			"request": {
				"method": "GET",
				"header": [
					{
						"description": "Normativo kafka",
						"key": "Content-Type",
						"value": "application/json"
					},
					{
						"description": "Normativo kakfa",
						"key": "Accept",
						"type": "text",
						"value": "application/json"
					}
				],
				"url": {
					"raw": "http://localhost:8083/connector-plugins",
					"protocol": "http",
					"host": [
						"localhost"
					],
					"port": "8083",
					"path": [
						"connector-plugins"
					]
				},
				"description": "Request que obtiene los plugins (JDBC,File, etc.) cargados en el HOST kafka connect."
			},
			"response": []
		},
		{
			"name": "taskConnector id Status",
			"request": {
				"method": "GET",
				"header": [
					{
						"description": "Normativo kafka",
						"key": "Content-Type",
						"value": "application/json"
					},
					{
						"description": "Normativo kakfa",
						"key": "Accept",
						"type": "text",
						"value": "application/json"
					}
				],
				"url": {
					"raw": "http://localhost:8083/connectors/TEST_CONNECTOR_SINK_RABBIT/tasks/0/status",
					"protocol": "http",
					"host": [
						"localhost"
					],
					"port": "8083",
					"path": [
						"connectors",
						"TEST_CONNECTOR_SINK_RABBIT",
						"tasks",
						"0",
						"status"
					]
				},
				"description": "Request que obtiene los TASK de un connector especifico existente en el HOST kafka connect, definido en la variable {{connector}}"
			},
			"response": []
		},
		{
			"name": "resumeConnector",
			"request": {
				"method": "PUT",
				"header": [
					{
						"description": "Normativo kafka",
						"key": "Content-Type",
						"value": "application/json"
					},
					{
						"description": "Normativo kakfa",
						"key": "Accept",
						"type": "text",
						"value": "application/json"
					}
				],
				"body": {
					"mode": "raw",
					"raw": ""
				},
				"url": {
					"raw": "http://localhost:8083/connectors/SIMPLE_SINK_BD/resume",
					"protocol": "http",
					"host": [
						"localhost"
					],
					"port": "8083",
					"path": [
						"connectors",
						"SIMPLE_SINK_BD",
						"resume"
					]
				},
				"description": "Request que pausa un connector especifico existente en el HOST kafka connect, definido en la variable {{connector}}"
			},
			"response": []
		},
		{
			"name": "getConnector-Especifico",
			"protocolProfileBehavior": {
				"disableBodyPruning": true
			},
			"request": {
				"method": "GET",
				"header": [
					{
						"key": "",
						"value": "",
						"type": "text",
						"disabled": true
					}
				],
				"body": {
					"mode": "raw",
					"raw": ""
				},
				"url": {
					"raw": "http://localhost:8083/connectors/TEST_CONNECTOR_SOURCE",
					"protocol": "http",
					"host": [
						"localhost"
					],
					"port": "8083",
					"path": [
						"connectors",
						"TEST_CONNECTOR_SOURCE"
					]
				},
				"description": "Request que obtiene un connector especifico existente en el HOST kafka connect, definido en la variable {{connector}} ."
			},
			"response": []
		}
	]
}